D:\jse-07\src\main\java\ru\dyatchina\tm\entity\Task.java
D:\jse-07\src\main\java\ru\dyatchina\tm\entity\Project.java
D:\jse-07\src\main\java\ru\dyatchina\tm\dao\ProjectDAO.java
D:\jse-07\src\main\java\ru\dyatchina\tm\dao\TaskDAO.java
D:\jse-07\src\main\java\ru\dyatchina\tm\App.java
D:\jse-07\src\main\java\ru\dyatchina\tm\constant\TerminalConst.java
